CODE_BINDING,CODE_SYSTEM,CODE,CODE_LABEL
CANCER_BREAST,http://epic.com/uhealth/clarity/zc_medical_hx/medical_hx_c,1204,Breast cancer
CANCER_BREAST,http://epic.com/uhealth/clarity/zc_medical_hx/medical_hx_c,5,"Cancer, breast"
CANCER_BREAST,http://epic.com/uhealth/clarity/zc_medical_hx/medical_hx_c,534,Left breast cancer
CANCER_BREAST,http://epic.com/uhealth/clarity/zc_medical_hx/medical_hx_c,628,Postmenopausal breast cancer
CANCER_BREAST,http://epic.com/uhealth/clarity/zc_medical_hx/medical_hx_c,656,Right breast cancer
CANCER_PANCREAS,http://epic.com/uhealth/clarity/zc_medical_hx/medical_hx_c,2100000011,"Cancer, pancreas"
CANCER_PANCREAS,http://epic.com/uhealth/clarity/zc_medical_hx/medical_hx_c,595,Pancreatic cancer
CANCER_PROSTATE,http://epic.com/uhealth/clarity/zc_medical_hx/medical_hx_c,2100000005,Prostate cancer
CANCER_PROSTATE,http://epic.com/uhealth/clarity/zc_medical_hx/medical_hx_c,8,"Cancer, prostate"
BRCA_1_GENE_MUTATION,http://epic.com/uhealth/clarity/zc_medical_hx/medical_hx_c,304050001,BRCA 1 mutation
BRCA_1_GENE_MUTATION,http://epic.com/uhealth/clarity/zc_medical_hx/medical_hx_c,334,BRCA 1 positive
BRCA_2_GENE_MUTATION,http://epic.com/uhealth/clarity/zc_medical_hx/medical_hx_c,304050002,BRCA 2 mutation
BRCA_2_GENE_MUTATION,http://epic.com/uhealth/clarity/zc_medical_hx/medical_hx_c,336,BRCA 2 positive
COWDEN_SYNDROME,http://epic.com/uhealth/clarity/zc_medical_hx/medical_hx_c,378,COWDEN SYNDROME
LI_FRAUMENI_SYNDROME,http://epic.com/uhealth/clarity/zc_medical_hx/medical_hx_c,538,LI-FRAUMENI SYNDROME
CANCER_BREAST,http://epic.com/uhealth/clarity/zc_medical_hx/medical_hx_c,327,Bilateral breast cancer
CANCER_BREAST,http://epic.com/uhealth/clarity/zc_medical_hx/medical_hx_c,632,Premenopausal breast cancer
CANCER_OVARIAN,http://epic.com/uhealth/clarity/zc_medical_hx/medical_hx_c,71,"Cancer, ovarian"
CANCER_BLADDER,http://epic.com/uhealth/clarity/zc_medical_hx/medical_hx_c,1200000007,Bladder Cancer
CANCER_BRAIN,http://epic.com/uhealth/clarity/zc_medical_hx/medical_hx_c,2102300002,"Cancer, Brain"
CANCER_COLON,http://epic.com/uhealth/clarity/zc_medical_hx/medical_hx_c,20102,Colon Cancer
CANCER_COLON,http://epic.com/uhealth/clarity/zc_medical_hx/medical_hx_c,6,"Cancer, Colon"
CANCER_ENDOMETRIAL,http://epic.com/uhealth/clarity/zc_medical_hx/medical_hx_c,234,"Cancer, Uterine/Endometrial"
CANCER_ENDOMETRIAL,http://epic.com/uhealth/clarity/zc_medical_hx/medical_hx_c,418,Endometrial Cancer
CANCER_ENDOMETRIAL,http://epic.com/uhealth/clarity/zc_medical_hx/medical_hx_c,720,"Cancer, Uterine"
CANCER_KIDNEY,http://epic.com/uhealth/clarity/zc_medical_hx/medical_hx_c,2100000003,"Cancer, Kidney"
CANCER_OVARIAN,http://epic.com/uhealth/clarity/zc_medical_hx/medical_hx_c,1205,Ovarian cancer
CANCER_RECTAL,http://epic.com/uhealth/clarity/zc_medical_hx/medical_hx_c,1010000010,"Cancer, Rectal"
CANCER_STOMACH,http://epic.com/uhealth/clarity/zc_medical_hx/medical_hx_c,1010000011,"Cancer, Stomach"
CANCER_UTERINE,http://epic.com/uhealth/clarity/zc_medical_hx/medical_hx_c,234,"Cancer, Uterine/Endometrial"
CANCER_UTERINE,http://epic.com/uhealth/clarity/zc_medical_hx/medical_hx_c,418,Endometrial Cancer
CANCER_UTERINE,http://epic.com/uhealth/clarity/zc_medical_hx/medical_hx_c,720,"Cancer, Uterine"
HEREDITARY_NONPOLYPOSIS_COLON_CANCER,http://epic.com/uhealth/clarity/zc_medical_hx/medical_hx_c,467,Hereditary Non-polyposis Colon Cancer
JEWISH,http://epic.com/uhealth/clarity/zc_religion/religion_c,2,Jewish
LYNCH_SYNDROME,http://epic.com/uhealth/clarity/zc_medical_hx/medical_hx_c,2102300000,Lynch Syndrome
FAMILIAL_ADENOMATOUS_POLYPOSIS,http://epic.com/uhealth/clarity/zc_medical_hx/medical_hx_c,202,Familial Adenomatous Polyposis
AUNT,http://epic.com/uhealth/clarity/zc_relation/relation_c,11,Aunt
DAUGHTER,http://epic.com/uhealth/clarity/zc_relation/relation_c,9,Daughter
MATERNAL_AUNT,http://epic.com/uhealth/clarity/zc_relation/relation_c,30316,Maternal Aunt
MOTHER,http://epic.com/uhealth/clarity/zc_relation/relation_c,1,Mother
PATERNAL_AUNT,http://epic.com/uhealth/clarity/zc_relation/relation_c,30314,Paternal Aunt
PATERNAL_GRANDMOTHER,http://epic.com/uhealth/clarity/zc_relation/relation_c,7,Paternal Grandmother
SISTER,http://epic.com/uhealth/clarity/zc_relation/relation_c,3,Sister
BROTHER,http://epic.com/uhealth/clarity/zc_relation/relation_c,4,Brother
FATHER,http://epic.com/uhealth/clarity/zc_relation/relation_c,2,Father
SON,http://epic.com/uhealth/clarity/zc_relation/relation_c,10,Son
MATERNAL_UNCLE,http://epic.com/uhealth/clarity/zc_relation/relation_c,30313,Maternal Uncle
PATERNAL_GRANDFATHER,http://epic.com/uhealth/clarity/zc_relation/relation_c,8,Paternal Grandfather
PATERNAL_UNCLE,http://epic.com/uhealth/clarity/zc_relation/relation_c,30315,Paternal Uncle
UNCLE,http://epic.com/uhealth/clarity/zc_relation/relation_c,12,Uncle
HALF_BROTHER,http://epic.com/uhealth/clarity/zc_relation/relation_c,2103200007,Half-Brother
HALF_SISTER,http://epic.com/uhealth/clarity/zc_relation/relation_c,2103200008,Half-Sister
MATERNAL_GRANDFATHER,http://epic.com/uhealth/clarity/zc_relation/relation_c,6,Maternal Grandfather
MATERNAL_GRANDMOTHER,http://epic.com/uhealth/clarity/zc_relation/relation_c,5,Maternal Grandmother
NEPHEW,http://epic.com/uhealth/clarity/zc_relation/relation_c,2103200006,Nephew
NIECE,http://epic.com/uhealth/clarity/zc_relation/relation_c,2103200005,Niece
FEMALE,http://epic.com/uhealth/clarity/zc_sex,1,Female
MALE,http://epic.com/uhealth/clarity/zc_sex,2,Male
OTHER,http://epic.com/uhealth/clarity/zc_sex,999,Other
UNKNOWN,http://epic.com/uhealth/clarity/zc_sex,3,Unknown
GRANDSON,http://epic.com/uhealth/clarity/zc_relation/relation_c,2103200009,Grandson
GRANDDAUGHTER,http://epic.com/uhealth/clarity/zc_relation/relation_c,2103200010,Granddaughter
PATERNAL_COUSIN,http://epic.com/uhealth/clarity/zc_relation/relation_c,2103200011,Paternal Cousin
MATERNAL_COUSIN,http://epic.com/uhealth/clarity/zc_relation/relation_c,2103200012,Maternal Cousin
GRANDCHILD,http://epic.com/uhealth/clarity/zc_relation/relation_c,2104300001,Grandchild
HALF_SIBLING,http://epic.com/uhealth/clarity/zc_relation/relation_c,2104300002,Half-Sibling
GRANDPARENT,http://epic.com/uhealth/clarity/zc_relation/relation_c,2104300003,Maternal Grandparent
MATERNAL_GREAT_GRANDFATHER,http://epic.com/uhealth/clarity/zc_relation/relation_c,2104300004,Maternal Great-Grandfather
MATERNAL_GREAT_GRANDMOTHER,http://epic.com/uhealth/clarity/zc_relation/relation_c,2104300005,Maternal Great-Grandmother
MATERNAL_GREAT_GRANDPARENT,http://epic.com/uhealth/clarity/zc_relation/relation_c,2104300006,Maternal Great-Grandparent
CHILD,http://epic.com/uhealth/clarity/zc_relation/relation_c,2104300007,Natural Child
PARENT,http://epic.com/uhealth/clarity/zc_relation/relation_c,2104300008,Natural Parent
SIBLING,http://epic.com/uhealth/clarity/zc_relation/relation_c,2104300009,Natural Sibling
NIECE_NEPHEW,http://epic.com/uhealth/clarity/zc_relation/relation_c,2104300010,Niece/Nephew
PATERNAL_GRANDPARENT,http://epic.com/uhealth/clarity/zc_relation/relation_c,2104300011,Paternal Grandparent
PATERNAL_GREAT_GRANDFATHER,http://epic.com/uhealth/clarity/zc_relation/relation_c,2104300012,Paternal Great-Grandfather
PATERNAL_GREAT_GRANDMOTHER,http://epic.com/uhealth/clarity/zc_relation/relation_c,2104300013,Paternal Great-Grandmother
PATERNAL_GREAT_GRANDPARENT,http://epic.com/uhealth/clarity/zc_relation/relation_c,2104300014,Paternal Great-Grandparent