URI_TYPE,URI_BINDING,URI
CODE_SYSTEM_URI,REHR_NCCN_CODE_SYSTEM_URI,http://utah.edu/rehr/nccn
GUIDELINE_URI,GLUE_GENETIC_ASSESSMENT_GUIDELINE_2018_URI,"GLUE:FamilialHypercholesterolemiaGeneticTestingAssessment_2018"
