DE_PAT_ID|SDE_ID|SDE_VALUE|PAT_SEX|PAT_DOB
8017389,NYU#2357,Standard of care,1,19640706
80100460,NYU#2357,Standard of care,1,19810416
80106526,NYU#2357,Standard of care,2,19680103
80108430,NYU#2357,Standard of care,1,19810618
80119371,NYU#2357,Standard of care,1,19740301
80127268,NYU#2357,Standard of care,1,19841210
80127507,NYU#2357,Standard of care,1,19750924
80129001,NYU#2357,Standard of care,2,19731101
80135069,NYU#2357,Standard of care,2,19660729
80136987,NYU#2357,Standard of care,1,19731011
80145300,NYU#2357,Standard of care,2,19680721
80147540,NYU#2357,Standard of care,1,19700109
80161594,NYU#2357,Standard of care,1,19630526
80167055,NYU#2357,Standard of care,1,19870213
80172782,NYU#2357,Standard of care,2,19780210
80181928,NYU#2357,Standard of care,1,19720621
80183263,NYU#2357,Standard of care,1,19751127
80189797,NYU#2357,Standard of care,1,19910922
80191145,NYU#2357,Standard of care,1,19620521
80192529,NYU#2357,Standard of care,1,19810303
80193081,NYU#2357,Standard of care,1,19650204
801004378,NYU#2357,Standard of care,1,19700721
801004854,NYU#2357,Standard of care,1,19850113
801009469,NYU#2357,Standard of care,1,19780407
801021006,NYU#2357,Standard of care,1,19860611
801028837,NYU#2357,Standard of care,1,19940124
801044172,NYU#2357,Standard of care,1,19901219
801058092,NYU#2357,Standard of care,2,19600619
801063599,NYU#2357,Standard of care,1,19950604
801066942,NYU#2357,Patient directed,1,19900207
801068934,NYU#2357,Patient directed,1,19910221
801075804,NYU#2357,Patient directed,2,19750107
801086531,NYU#2357,Patient directed,1,19690612
801087169,NYU#2357,Patient directed,1,19820730
801093215,NYU#2357,Patient directed,1,19851206
801094396,NYU#2357,Patient directed,1,19850828
801099423,NYU#2357,Patient directed,1,19950207
801111986,NYU#2357,Patient directed,1,19940325
801114763,NYU#2357,Patient directed,1,19890107
801122556,NYU#2357,Patient directed,1,19640216
801127109,NYU#2357,Patient directed,1,19890913
801127354,NYU#2357,Patient directed,1,19721006
801129629,NYU#2357,Patient directed,2,19860117
801131628,NYU#2357,Patient directed,1,19830716
801133591,NYU#2357,Patient directed,1,19890928
801134631,NYU#2357,Patient directed,1,19760427
801140952,NYU#2357,Patient directed,2,19860810
801144144,NYU#2357,Patient directed,1,19620130
801147430,NYU#2357,Patient directed,1,19900425
